資料分析
…
如何修改座標軸，第 2.7 節。

除了顯示圖形物件之外你還能對它做的事，例如把它存到磁碟，第 2.8 節。

燃油經濟性資料

燃油經濟性資料

在本章中，我們大多使用一個與 ggplot2 一起附帶的資料集：mpg。它包含 1999 年與 2008 年熱門車款的燃油經濟性資訊，由美國環境保護署收集，http://fueleconomy.gov。你可以透過載入 ggplot2 來存取這份資料：

library(ggplot2)
mpg

# A tibble: 234 × 11
   manufacturer model      displ  year   cyl trans drv     cty   hwy fl    class
   <chr>        <chr>      <dbl> <int> <int> <chr> <chr> <int> <int> <chr> <chr>
 1 audi         a4           1.8  1999     4 auto… f        18    29 p     comp…
 2 audi         a4           1.8  1999     4 manu… f        21    29 p     comp…
 3 audi         a4           2    2008     4 manu… f        20    31 p     comp…
 4 audi         a4           2    2008     4 auto… f        21    30 p     comp…
 5 audi         a4           2.8  1999     6 auto… f        16    26 p     comp…
 6 audi         a4           2.8  1999     6 manu… f        18    26 p     comp…
 7 audi         a4           3.1  2008     6 auto… f        18    27 p     comp…
 8 audi         a4 quattro   1.8  1999     4 manu… 4        18    26 p     comp…
 9 audi         a4 quattro   1.8  1999     4 auto… 4        16    25 p     comp…
10 audi         a4 quattro   2    2008     4 manu… 4        20    28 p     comp…
# ℹ 224 more rows
…
